[Thu Aug 29 14:42:03.051659 2019] [mpm_winnt:notice] [pid 2508:tid 616] AH00455: Apache/2.4.39 (Win64) PHP/7.1.31 configured -- resuming normal operations
[Thu Aug 29 14:42:03.051659 2019] [mpm_winnt:notice] [pid 2508:tid 616] AH00456: Apache Lounge VS16 Server built: May 28 2019 17:12:51
[Thu Aug 29 14:42:03.051659 2019] [core:notice] [pid 2508:tid 616] AH00094: Command line: 'g:\\program\\Apache24\\bin\\httpd.exe -d G:/program/Apache24'
[Thu Aug 29 14:42:03.067285 2019] [mpm_winnt:notice] [pid 2508:tid 616] AH00418: Parent: Created child process 4768
[Thu Aug 29 14:42:03.801670 2019] [mpm_winnt:notice] [pid 4768:tid 556] AH00354: Child: Starting 64 worker threads.
[Thu Aug 29 14:55:55.843495 2019] [php7:notice] [pid 4768:tid 1036] [client ::1:50189] PHP Notice:  Undefined index: name in G:\\localhost.loc\\index.php on line 28
[Thu Aug 29 15:06:51.730377 2019] [php7:notice] [pid 4768:tid 1036] [client ::1:58457] PHP Notice:  Undefined index: date in G:\\localhost.loc\\index.php on line 28, referer: http://localhost:8080/
[Thu Aug 29 15:12:10.835413 2019] [php7:notice] [pid 4768:tid 1036] [client ::1:58500] PHP Notice:  Undefined index: phone in G:\\localhost.loc\\index.php on line 28
[Thu Aug 29 15:15:58.969800 2019] [php7:notice] [pid 4768:tid 1036] [client ::1:58550] PHP Notice:  Undefined index: phone in G:\\localhost.loc\\index.php on line 28
[Thu Aug 29 16:29:22.739221 2019] [php7:notice] [pid 4768:tid 1032] [client ::1:57059] PHP Notice:  Undefined index: phone in G:\\localhost.loc\\index.php on line 36
[Thu Aug 29 16:29:54.487339 2019] [php7:notice] [pid 4768:tid 1036] [client ::1:57065] PHP Notice:  Undefined index: car in G:\\localhost.loc\\index.php on line 35
[Thu Aug 29 16:30:52.280705 2019] [php7:notice] [pid 4768:tid 1032] [client ::1:57075] PHP Notice:  Undefined index: car in G:\\localhost.loc\\index.php on line 35
[Thu Aug 29 17:32:59.050093 2019] [php7:notice] [pid 4768:tid 1020] [client ::1:55088] PHP Notice:  Undefined index: car in G:\\localhost.loc\\index.php on line 35
[Thu Aug 29 17:51:36.517983 2019] [php7:notice] [pid 4768:tid 1028] [client ::1:55351] PHP Notice:  Undefined variable: link in G:\\localhost.loc\\index.php on line 41
[Thu Aug 29 17:51:36.517983 2019] [php7:warn] [pid 4768:tid 1028] [client ::1:55351] PHP Warning:  mysqli_query() expects parameter 1 to be mysqli, null given in G:\\localhost.loc\\index.php on line 41
[Thu Aug 29 17:51:36.517983 2019] [php7:notice] [pid 4768:tid 1028] [client ::1:55351] PHP Notice:  Undefined variable: link in G:\\localhost.loc\\index.php on line 41
[Thu Aug 29 17:51:36.517983 2019] [php7:warn] [pid 4768:tid 1028] [client ::1:55351] PHP Warning:  mysqli_error() expects parameter 1 to be mysqli, null given in G:\\localhost.loc\\index.php on line 41
[Thu Aug 29 17:55:28.626862 2019] [php7:notice] [pid 4768:tid 1032] [client ::1:55450] PHP Notice:  Undefined variable: link in G:\\localhost.loc\\index.php on line 41
[Thu Aug 29 17:55:28.626862 2019] [php7:warn] [pid 4768:tid 1032] [client ::1:55450] PHP Warning:  mysqli_query() expects parameter 1 to be mysqli, null given in G:\\localhost.loc\\index.php on line 41
[Thu Aug 29 17:55:28.626862 2019] [php7:notice] [pid 4768:tid 1032] [client ::1:55450] PHP Notice:  Undefined variable: link in G:\\localhost.loc\\index.php on line 41
[Thu Aug 29 17:55:28.626862 2019] [php7:warn] [pid 4768:tid 1032] [client ::1:55450] PHP Warning:  mysqli_error() expects parameter 1 to be mysqli, null given in G:\\localhost.loc\\index.php on line 41
[Thu Aug 29 17:55:33.031704 2019] [php7:notice] [pid 4768:tid 1032] [client ::1:55450] PHP Notice:  Undefined variable: link in G:\\localhost.loc\\index.php on line 41
[Thu Aug 29 17:55:33.031704 2019] [php7:warn] [pid 4768:tid 1032] [client ::1:55450] PHP Warning:  mysqli_query() expects parameter 1 to be mysqli, null given in G:\\localhost.loc\\index.php on line 41
[Thu Aug 29 17:55:33.031704 2019] [php7:notice] [pid 4768:tid 1032] [client ::1:55450] PHP Notice:  Undefined variable: link in G:\\localhost.loc\\index.php on line 41
[Thu Aug 29 17:55:33.031704 2019] [php7:warn] [pid 4768:tid 1032] [client ::1:55450] PHP Warning:  mysqli_error() expects parameter 1 to be mysqli, null given in G:\\localhost.loc\\index.php on line 41
[Thu Aug 29 17:56:35.300802 2019] [php7:notice] [pid 4768:tid 1028] [client ::1:55474] PHP Notice:  Undefined index: car in G:\\localhost.loc\\index.php on line 54
[Thu Aug 29 23:50:15.936512 2019] [mpm_winnt:notice] [pid 2508:tid 616] AH00422: Parent: Received shutdown signal -- Shutting down the server.
[Thu Aug 29 23:50:17.952224 2019] [mpm_winnt:notice] [pid 4768:tid 556] AH00364: Child: All worker threads have exited.
[Thu Aug 29 23:50:18.014726 2019] [mpm_winnt:notice] [pid 2508:tid 616] AH00430: Parent: Child process 4768 exited successfully.
[Fri Aug 30 10:24:55.846763 2019] [mpm_winnt:notice] [pid 2508:tid 492] AH00455: Apache/2.4.39 (Win64) PHP/7.1.31 configured -- resuming normal operations
[Fri Aug 30 10:24:55.846763 2019] [mpm_winnt:notice] [pid 2508:tid 492] AH00456: Apache Lounge VS16 Server built: May 28 2019 17:12:51
[Fri Aug 30 10:24:55.846763 2019] [core:notice] [pid 2508:tid 492] AH00094: Command line: 'g:\\program\\Apache24\\bin\\httpd.exe -d G:/program/Apache24'
[Fri Aug 30 10:24:55.846763 2019] [mpm_winnt:notice] [pid 2508:tid 492] AH00418: Parent: Created child process 4696
[Fri Aug 30 10:24:56.534273 2019] [mpm_winnt:notice] [pid 4696:tid 480] AH00354: Child: Starting 64 worker threads.
[Fri Aug 30 11:39:31.155399 2019] [php7:warn] [pid 4696:tid 1028] [client ::1:51161] PHP Warning:  mysqli_free_result() expects parameter 1 to be mysqli_result, boolean given in G:\\localhost.loc\\index.php on line 86, referer: http://localhost:8080/
[Fri Aug 30 11:41:35.192726 2019] [php7:warn] [pid 4696:tid 1028] [client ::1:51197] PHP Warning:  mysqli_free_result() expects parameter 1 to be mysqli_result, boolean given in G:\\localhost.loc\\index.php on line 87, referer: http://localhost:8080/
[Fri Aug 30 11:46:38.498776 2019] [php7:warn] [pid 4696:tid 1036] [client ::1:51256] PHP Warning:  mysqli_free_result() expects parameter 1 to be mysqli_result, boolean given in G:\\localhost.loc\\index.php on line 85, referer: http://localhost:8080/
[Fri Aug 30 14:57:13.471580 2019] [mpm_winnt:notice] [pid 2508:tid 492] AH00422: Parent: Received shutdown signal -- Shutting down the server.
[Fri Aug 30 14:57:15.490024 2019] [mpm_winnt:notice] [pid 4696:tid 480] AH00364: Child: All worker threads have exited.
[Fri Aug 30 14:57:15.583816 2019] [mpm_winnt:notice] [pid 2508:tid 492] AH00430: Parent: Child process 4696 exited successfully.
[Fri Aug 30 16:51:59.192164 2019] [mpm_winnt:notice] [pid 2488:tid 580] AH00455: Apache/2.4.39 (Win64) PHP/7.1.31 configured -- resuming normal operations
[Fri Aug 30 16:51:59.192164 2019] [mpm_winnt:notice] [pid 2488:tid 580] AH00456: Apache Lounge VS16 Server built: May 28 2019 17:12:51
[Fri Aug 30 16:51:59.192164 2019] [core:notice] [pid 2488:tid 580] AH00094: Command line: 'g:\\program\\Apache24\\bin\\httpd.exe -d G:/program/Apache24'
[Fri Aug 30 16:51:59.192164 2019] [mpm_winnt:notice] [pid 2488:tid 580] AH00418: Parent: Created child process 4660
[Fri Aug 30 16:51:59.942174 2019] [mpm_winnt:notice] [pid 4660:tid 528] AH00354: Child: Starting 64 worker threads.
[Fri Aug 30 17:10:56.081203 2019] [mpm_winnt:notice] [pid 2488:tid 580] AH00422: Parent: Received shutdown signal -- Shutting down the server.
[Fri Aug 30 17:10:58.095962 2019] [mpm_winnt:notice] [pid 4660:tid 528] AH00364: Child: All worker threads have exited.
[Fri Aug 30 17:10:58.142838 2019] [mpm_winnt:notice] [pid 2488:tid 580] AH00430: Parent: Child process 4660 exited successfully.
[Sat Aug 31 11:17:49.145391 2019] [mpm_winnt:notice] [pid 2688:tid 592] AH00455: Apache/2.4.39 (Win64) PHP/7.1.31 configured -- resuming normal operations
[Sat Aug 31 11:17:49.145391 2019] [mpm_winnt:notice] [pid 2688:tid 592] AH00456: Apache Lounge VS16 Server built: May 28 2019 17:12:51
[Sat Aug 31 11:17:49.145391 2019] [core:notice] [pid 2688:tid 592] AH00094: Command line: 'g:\\program\\Apache24\\bin\\httpd.exe -d G:/program/Apache24'
[Sat Aug 31 11:17:49.161016 2019] [mpm_winnt:notice] [pid 2688:tid 592] AH00418: Parent: Created child process 4708
[Sat Aug 31 11:17:49.895404 2019] [mpm_winnt:notice] [pid 4708:tid 444] AH00354: Child: Starting 64 worker threads.
[Sat Aug 31 12:34:40.162662 2019] [php7:notice] [pid 4708:tid 1020] [client ::1:51024] PHP Notice:  Undefined variable: phone in G:\\localhost.loc\\send.php on line 34, referer: http://localhost:8080/
[Sat Aug 31 12:38:20.557817 2019] [php7:notice] [pid 4708:tid 1032] [client ::1:51061] PHP Notice:  Undefined variable: phone in G:\\localhost.loc\\send.php on line 30, referer: http://localhost:8080/
[Sat Aug 31 12:38:22.121113 2019] [php7:notice] [pid 4708:tid 1032] [client ::1:51061] PHP Notice:  Undefined variable: phone in G:\\localhost.loc\\send.php on line 30, referer: http://localhost:8080/
[Sat Aug 31 12:38:22.705373 2019] [php7:notice] [pid 4708:tid 1032] [client ::1:51061] PHP Notice:  Undefined variable: phone in G:\\localhost.loc\\send.php on line 30, referer: http://localhost:8080/
[Sat Aug 31 12:38:22.912947 2019] [php7:notice] [pid 4708:tid 1032] [client ::1:51061] PHP Notice:  Undefined variable: phone in G:\\localhost.loc\\send.php on line 30, referer: http://localhost:8080/
[Sat Aug 31 12:38:23.088872 2019] [php7:notice] [pid 4708:tid 1032] [client ::1:51061] PHP Notice:  Undefined variable: phone in G:\\localhost.loc\\send.php on line 30, referer: http://localhost:8080/
[Sat Aug 31 12:38:46.398579 2019] [php7:notice] [pid 4708:tid 1032] [client ::1:51071] PHP Notice:  Undefined variable: phone in G:\\localhost.loc\\send.php on line 30, referer: http://localhost:8080/
[Sat Aug 31 14:07:16.480580 2019] [php7:notice] [pid 4708:tid 1020] [client ::1:52102] PHP Notice:  Undefined variable: phone in G:\\localhost.loc\\send.php on line 29, referer: http://localhost:8080/
[Sat Aug 31 14:07:54.038242 2019] [php7:notice] [pid 4708:tid 1020] [client ::1:52103] PHP Notice:  Undefined variable: phone in G:\\localhost.loc\\send.php on line 29, referer: http://localhost:8080/
[Sat Aug 31 14:07:54.748393 2019] [php7:notice] [pid 4708:tid 1020] [client ::1:52103] PHP Notice:  Undefined variable: phone in G:\\localhost.loc\\send.php on line 29, referer: http://localhost:8080/
[Sat Aug 31 14:07:54.907955 2019] [php7:notice] [pid 4708:tid 1020] [client ::1:52103] PHP Notice:  Undefined variable: phone in G:\\localhost.loc\\send.php on line 29, referer: http://localhost:8080/
[Sat Aug 31 14:07:55.068094 2019] [php7:notice] [pid 4708:tid 1020] [client ::1:52103] PHP Notice:  Undefined variable: phone in G:\\localhost.loc\\send.php on line 29, referer: http://localhost:8080/
[Sat Aug 31 14:07:55.233762 2019] [php7:notice] [pid 4708:tid 1020] [client ::1:52103] PHP Notice:  Undefined variable: phone in G:\\localhost.loc\\send.php on line 29, referer: http://localhost:8080/
[Sat Aug 31 14:07:55.405511 2019] [php7:notice] [pid 4708:tid 1020] [client ::1:52103] PHP Notice:  Undefined variable: phone in G:\\localhost.loc\\send.php on line 29, referer: http://localhost:8080/
[Sat Aug 31 14:08:59.534983 2019] [php7:notice] [pid 4708:tid 1020] [client ::1:52111] PHP Notice:  Undefined variable: phone in G:\\localhost.loc\\send.php on line 30, referer: http://localhost:8080/
[Sat Aug 31 14:09:00.240678 2019] [php7:notice] [pid 4708:tid 1020] [client ::1:52111] PHP Notice:  Undefined variable: phone in G:\\localhost.loc\\send.php on line 30, referer: http://localhost:8080/
[Sat Aug 31 14:09:00.400693 2019] [php7:notice] [pid 4708:tid 1020] [client ::1:52111] PHP Notice:  Undefined variable: phone in G:\\localhost.loc\\send.php on line 30, referer: http://localhost:8080/
[Sat Aug 31 14:09:00.576356 2019] [php7:notice] [pid 4708:tid 1020] [client ::1:52111] PHP Notice:  Undefined variable: phone in G:\\localhost.loc\\send.php on line 30, referer: http://localhost:8080/
[Sat Aug 31 14:09:00.703962 2019] [php7:notice] [pid 4708:tid 1020] [client ::1:52111] PHP Notice:  Undefined variable: phone in G:\\localhost.loc\\send.php on line 30, referer: http://localhost:8080/
[Sat Aug 31 14:09:21.392138 2019] [php7:notice] [pid 4708:tid 1020] [client ::1:52113] PHP Notice:  Undefined variable: phone in G:\\localhost.loc\\send.php on line 30, referer: http://localhost:8080/
[Sat Aug 31 14:09:22.048077 2019] [php7:notice] [pid 4708:tid 1020] [client ::1:52113] PHP Notice:  Undefined variable: phone in G:\\localhost.loc\\send.php on line 30, referer: http://localhost:8080/
[Sat Aug 31 14:09:22.226703 2019] [php7:notice] [pid 4708:tid 1020] [client ::1:52113] PHP Notice:  Undefined variable: phone in G:\\localhost.loc\\send.php on line 30, referer: http://localhost:8080/
[Sat Aug 31 14:09:22.418389 2019] [php7:notice] [pid 4708:tid 1020] [client ::1:52113] PHP Notice:  Undefined variable: phone in G:\\localhost.loc\\send.php on line 30, referer: http://localhost:8080/
[Sat Aug 31 14:09:22.594625 2019] [php7:notice] [pid 4708:tid 1020] [client ::1:52113] PHP Notice:  Undefined variable: phone in G:\\localhost.loc\\send.php on line 30, referer: http://localhost:8080/
[Sat Aug 31 14:09:22.770714 2019] [php7:notice] [pid 4708:tid 1020] [client ::1:52113] PHP Notice:  Undefined variable: phone in G:\\localhost.loc\\send.php on line 30, referer: http://localhost:8080/
[Sat Aug 31 14:16:11.808815 2019] [php7:notice] [pid 4708:tid 1020] [client ::1:52177] PHP Notice:  Undefined variable: phone in G:\\localhost.loc\\send.php on line 33, referer: http://localhost:8080/
[Sat Aug 31 14:16:12.672799 2019] [php7:notice] [pid 4708:tid 1020] [client ::1:52177] PHP Notice:  Undefined variable: phone in G:\\localhost.loc\\send.php on line 33, referer: http://localhost:8080/
[Sat Aug 31 14:16:12.862518 2019] [php7:notice] [pid 4708:tid 1020] [client ::1:52177] PHP Notice:  Undefined variable: phone in G:\\localhost.loc\\send.php on line 33, referer: http://localhost:8080/
[Sat Aug 31 14:16:13.055870 2019] [php7:notice] [pid 4708:tid 1020] [client ::1:52177] PHP Notice:  Undefined variable: phone in G:\\localhost.loc\\send.php on line 33, referer: http://localhost:8080/
[Sat Aug 31 14:16:13.247327 2019] [php7:notice] [pid 4708:tid 1020] [client ::1:52177] PHP Notice:  Undefined variable: phone in G:\\localhost.loc\\send.php on line 33, referer: http://localhost:8080/
[Sat Aug 31 14:16:13.472517 2019] [php7:notice] [pid 4708:tid 1020] [client ::1:52177] PHP Notice:  Undefined variable: phone in G:\\localhost.loc\\send.php on line 33, referer: http://localhost:8080/
[Sat Aug 31 14:16:26.650112 2019] [php7:notice] [pid 4708:tid 1020] [client ::1:52179] PHP Notice:  Undefined variable: phone in G:\\localhost.loc\\send.php on line 33, referer: http://localhost:8080/
[Sat Aug 31 14:18:28.822589 2019] [php7:crit] [pid 4708:tid 1020] [client ::1:52215] PHP Parse error:  syntax error, unexpected 'else' (T_ELSE) in G:\\localhost.loc\\send.php on line 23, referer: http://localhost:8080/
[Sat Aug 31 14:18:29.977345 2019] [php7:crit] [pid 4708:tid 1020] [client ::1:52215] PHP Parse error:  syntax error, unexpected 'else' (T_ELSE) in G:\\localhost.loc\\send.php on line 23, referer: http://localhost:8080/
[Sat Aug 31 14:18:30.187047 2019] [php7:crit] [pid 4708:tid 1020] [client ::1:52215] PHP Parse error:  syntax error, unexpected 'else' (T_ELSE) in G:\\localhost.loc\\send.php on line 23, referer: http://localhost:8080/
[Sat Aug 31 15:02:25.864018 2019] [php7:crit] [pid 4708:tid 1020] [client ::1:52479] PHP Parse error:  syntax error, unexpected 'else' (T_ELSE) in G:\\localhost.loc\\send.php on line 24, referer: http://localhost:8080/
[Sat Aug 31 15:02:30.297910 2019] [php7:crit] [pid 4708:tid 1020] [client ::1:52479] PHP Parse error:  syntax error, unexpected 'else' (T_ELSE) in G:\\localhost.loc\\send.php on line 24, referer: http://localhost:8080/
[Sat Aug 31 15:02:30.472717 2019] [php7:crit] [pid 4708:tid 1020] [client ::1:52479] PHP Parse error:  syntax error, unexpected 'else' (T_ELSE) in G:\\localhost.loc\\send.php on line 24, referer: http://localhost:8080/
[Sat Aug 31 15:02:30.651078 2019] [php7:crit] [pid 4708:tid 1020] [client ::1:52479] PHP Parse error:  syntax error, unexpected 'else' (T_ELSE) in G:\\localhost.loc\\send.php on line 24, referer: http://localhost:8080/
[Sat Aug 31 15:02:35.945935 2019] [php7:crit] [pid 4708:tid 1020] [client ::1:52480] PHP Parse error:  syntax error, unexpected 'else' (T_ELSE) in G:\\localhost.loc\\send.php on line 24, referer: http://localhost:8080/
[Sat Aug 31 15:02:36.409174 2019] [php7:crit] [pid 4708:tid 1020] [client ::1:52480] PHP Parse error:  syntax error, unexpected 'else' (T_ELSE) in G:\\localhost.loc\\send.php on line 24, referer: http://localhost:8080/
[Sat Aug 31 15:02:36.586853 2019] [php7:crit] [pid 4708:tid 1020] [client ::1:52480] PHP Parse error:  syntax error, unexpected 'else' (T_ELSE) in G:\\localhost.loc\\send.php on line 24, referer: http://localhost:8080/
[Sat Aug 31 15:02:36.746862 2019] [php7:crit] [pid 4708:tid 1020] [client ::1:52480] PHP Parse error:  syntax error, unexpected 'else' (T_ELSE) in G:\\localhost.loc\\send.php on line 24, referer: http://localhost:8080/
[Sat Aug 31 15:03:29.240747 2019] [php7:crit] [pid 4708:tid 1020] [client ::1:52489] PHP Parse error:  syntax error, unexpected 'else' (T_ELSE) in G:\\localhost.loc\\send.php on line 24, referer: http://localhost:8080/
[Sat Aug 31 15:03:29.815266 2019] [php7:crit] [pid 4708:tid 1020] [client ::1:52489] PHP Parse error:  syntax error, unexpected 'else' (T_ELSE) in G:\\localhost.loc\\send.php on line 24, referer: http://localhost:8080/
[Sat Aug 31 15:03:29.991200 2019] [php7:crit] [pid 4708:tid 1020] [client ::1:52489] PHP Parse error:  syntax error, unexpected 'else' (T_ELSE) in G:\\localhost.loc\\send.php on line 24, referer: http://localhost:8080/
[Sat Aug 31 15:03:30.233440 2019] [php7:crit] [pid 4708:tid 1020] [client ::1:52489] PHP Parse error:  syntax error, unexpected 'else' (T_ELSE) in G:\\localhost.loc\\send.php on line 24, referer: http://localhost:8080/
[Sat Aug 31 15:03:49.993297 2019] [php7:crit] [pid 4708:tid 1020] [client ::1:52497] PHP Parse error:  syntax error, unexpected 'else' (T_ELSE) in G:\\localhost.loc\\send.php on line 24, referer: http://localhost:8080/
[Sat Aug 31 17:17:16.678022 2019] [php7:error] [pid 4708:tid 1020] [client ::1:53496] PHP Fatal error:  Uncaught Error: Class 'DataBase' not found in G:\\localhost.loc\\send.php:27\nStack trace:\n#0 {main}\n  thrown in G:\\localhost.loc\\send.php on line 27, referer: http://localhost:8080/
[Sat Aug 31 17:18:15.850444 2019] [php7:error] [pid 4708:tid 1020] [client ::1:53512] PHP Fatal error:  Uncaught Error: Class 'DataBase' not found in G:\\localhost.loc\\send.php:27\nStack trace:\n#0 {main}\n  thrown in G:\\localhost.loc\\send.php on line 27, referer: http://localhost:8080/
[Sat Aug 31 17:18:35.298303 2019] [php7:error] [pid 4708:tid 1032] [client ::1:53535] PHP Fatal error:  Uncaught Error: Class 'DataBase' not found in G:\\localhost.loc\\send.php:27\nStack trace:\n#0 {main}\n  thrown in G:\\localhost.loc\\send.php on line 27, referer: http://localhost:8080/
[Sat Aug 31 17:20:20.251580 2019] [php7:warn] [pid 4708:tid 1032] [client ::1:53562] PHP Warning:  Call to private DataBase::__destruct() from context '' during shutdown ignored in Unknown on line 0, referer: http://localhost:8080/
[Sat Aug 31 18:28:45.155427 2019] [mpm_winnt:notice] [pid 2688:tid 592] AH00422: Parent: Received shutdown signal -- Shutting down the server.
[Sat Aug 31 18:28:47.176420 2019] [mpm_winnt:notice] [pid 4708:tid 444] AH00364: Child: All worker threads have exited.
[Sat Aug 31 18:28:47.255084 2019] [mpm_winnt:notice] [pid 2688:tid 592] AH00430: Parent: Child process 4708 exited successfully.
[Sun Sep 01 19:09:37.879439 2019] [mpm_winnt:notice] [pid 2816:tid 592] AH00455: Apache/2.4.39 (Win64) PHP/7.1.31 configured -- resuming normal operations
[Sun Sep 01 19:09:37.879439 2019] [mpm_winnt:notice] [pid 2816:tid 592] AH00456: Apache Lounge VS16 Server built: May 28 2019 17:12:51
[Sun Sep 01 19:09:37.879439 2019] [core:notice] [pid 2816:tid 592] AH00094: Command line: 'g:\\program\\Apache24\\bin\\httpd.exe -d G:/program/Apache24'
[Sun Sep 01 19:09:37.879439 2019] [mpm_winnt:notice] [pid 2816:tid 592] AH00418: Parent: Created child process 4780
[Sun Sep 01 19:09:38.629448 2019] [mpm_winnt:notice] [pid 4780:tid 564] AH00354: Child: Starting 64 worker threads.
